{
 "allow_copy": 0,
 "allow_import": 0,
 "allow_rename": 0,
 "autoname": "field:status",
 "beta": 0,
 "creation": "2016-11-11 14:35:22.531718",
 "custom": 0,
 "docstatus": 0,
 "doctype": "DocType",
 "document_type": "",
 "editable_grid": 1,
 "engine": "InnoDB",
 "fields": [
  {
   "allow_on_submit": 0,
   "bold": 0,
   "collapsible": 0,
   "columns": 0,
   "fieldname": "status",
   "fieldtype": "Data",
   "hidden": 0,
   "ignore_user_permissions": 0,
   "ignore_xss_filter": 0,
   "in_filter": 0,
   "in_list_view": 0,
   "in_standard_filter": 0,
   "label": "Status",
   "length": 0,
   "no_copy": 0,
   "permlevel": 0,
   "precision": "",
   "print_hide": 0,
   "print_hide_if_no_value": 0,
   "read_only": 0,
   "remember_last_selected_value": 0,
   "report_hide": 0,
   "reqd": 1,
   "search_index": 0,
   "set_only_once": 0,
   "unique": 0
  }
 ],
 "hide_heading": 0,
 "hide_toolbar": 0,
 "idx": 0,
 "image_view": 0,
 "in_create": 0,
 "in_dialog": 0,
 "is_submittable": 0,
 "issingle": 0,
 "istable": 0,
 "max_attachments": 0,
 "modified": "2017-01-23 17:56:10.317963",
 "modified_by": "Administrator",
 "module": "apsara",
 "name": "Computing Asset Inspection Status",
 "name_case": "",
 "owner": "Administrator",
 "permissions": [
  {
   "amend": 0,
   "apply_user_permissions": 0,
   "cancel": 0,
   "create": 0,
   "delete": 0,
   "email": 1,
   "export": 1,
   "if_owner": 0,
   "import": 0,
   "is_custom": 0,
   "permlevel": 0,
   "print": 1,
   "read": 1,
   "report": 1,
   "role": "Admin Manager",
   "set_user_permissions": 0,
   "share": 1,
   "submit": 0,
   "write": 0
  },
  {
   "amend": 0,
   "apply_user_permissions": 0,
   "cancel": 0,
   "create": 1,
   "delete": 1,
   "email": 1,
   "export": 1,
   "if_owner": 0,
   "import": 0,
   "is_custom": 0,
   "permlevel": 0,
   "print": 1,
   "read": 1,
   "report": 1,
   "role": "Directors",
   "set_user_permissions": 0,
   "share": 1,
   "submit": 0,
   "write": 1
  }
 ],
 "quick_entry": 1,
 "read_only": 0,
 "read_only_onload": 0,
 "sort_field": "modified",
 "sort_order": "DESC",
 "title_field": "status",
 "track_seen": 0
}
